{
  "type": "service_account",
  "project_id": "cool-arch-99106",
  "private_key_id": "fc348d0c4b443a2c85d886ea28a9ef25845e3563",
  "private_key": "-----BEGIN PRIVATE KEY-----\nMIIEvAIBADANBgkqhkiG9w0BAQEFAASCBKYwggSiAgEAAoIBAQCnXKs+ua23je0t\nifLc4woIHHs01JIz4Jqz0yhw/WBMQ2w9clKToca8kyzNsWBNyGyByVnwrDMWzDBU\n4rnkfEGxGY3qjnUIxx/uUZtP2dev9r6n5rG545IIYDHjy/v5IRukjC+ZlajrQyEU\nZAVBMO/gNn7ZH6bLtJ0SBlKLJ+ynhbpWlrsGEKtcz5ICpWzSCBUvqIit9RsBoLeK\nlTaKqh5PE6RJbAu/fEiYXGetBLQCfR16R73pSPbVSl3Y7FWmxqKewgfr/5lgfaB8\nh7EUEBu2kesP4L90W3Pc+mEtGfJYiYm2ltNK4tX917H3rD3WY4In1NVdFJifHZr8\ndBwBfQBNAgMBAAECggEAAcNbviVXHj9Vb7zLt/DVXs4BV0ZjrukPatRkkUIov6JD\nM5Iu1VrSMj42WIllQL8wiMfTVdIpQfTPOomz7c4ITs0R3hYiR1V6XDifCKmRwzW3\n1E19cv5MgCBBTkt3Fqy3CECo0gxN/gJ+800gHWEeWc/r01jpGS1zLSjaDu4R/mwe\nwz9LRZ5Cke7zKc6WOeamOxseSwkb4V71uFjyCTQDh2dGczjwSV3GoFHyjDXZ4TDv\naPEWBHLzz41w+tarAgrVkDW2hni3yWLBlQT4mgfKoS4tId7HgHPDEbBGmvp7VykJ\ntbC97r6aChoeT6JXCi2bgxsMhIuS+fF+cRWI7YOFqQKBgQDnGMUD7Gd1nZ73J4AU\n0dfV7r70to88w4fUxcDbzZVyp06jsCYKwsRCrdYDKoLIvMUyOYEPx31SLORB29QL\n48CFJqkg3U+1ez1t/u/sHfNNAjXpqm1fhG34AUSWl0rUggw5rs8QEwLHVyDScIEe\nD8Qy7ppGDPkyo9s2605hQCx6NQKBgQC5Zah9ErpKCaZLiQQFqKqPIEbmcO4SeD86\nmBZ9uSNasv8tlsAFgk3LW37+sz4ABVy6khLM1TUhJiCDJmoC/IYnN4n/zQ9F5niJ\n1UvGMl/sSRZlrYpZdIrAwDyGym3R/Ug+vCBGLJWT2BBL+7ngNZ6XDAgOPi6r5mHr\neCSkxIvwuQKBgGNAhSUpPEoMd0CpK15FvdA46LSLT7uGMulUQX9lrWD/sEunFL+c\nZNRKetcDRAZY5MysW9zeDdnkQ+hxNIIiwAWv1AW0Z06Hbpu2WW7schlJ8MO5mZ3j\nb6OLT9zpf48Dh6KijHXX5GKe7g7TmPDDTr2dMo8RdVmlfDn7F7+24yNdAoGACm1j\nSpWRELT2O21bYo4X+bDRDAjx+uv0cnE3Yp7VFDbZD1FZP3YStgtRWzXtmMa0bnHk\nyMx9Dn48eePhNoXJbc873b1EzKOnx+jNODqBFqMNtW5LR7i8TRcC0Hn2L0dVluGx\n1wCO8R/H2t4vmCKr5sbwdQyeR2DPxRSeyv2a+VECgYB4UvhqrLDdsGOXfqykpikV\nqPvbajMm5XqXeJmbVSGso2Rd6feH6rKfJkv1lenA8JWAmX3f3k9JxPa0bRo2fw0X\nq7oIZWz2smjvl24ldDraPDsTFDkpveXQesBlqZ4xcAySQ6qdAM16cIH6WOL3HHYG\nP0Jyue4vpzXactB1IMBFTg==\n-----END PRIVATE KEY-----\n",
  "client_email": "1037055028710-compute@developer.gserviceaccount.com",
  "client_id": "",
  "auth_uri": "https://accounts.google.com/o/oauth2/auth",
  "token_uri": "https://oauth2.googleapis.com/token",
  "auth_provider_x509_cert_url": "https://www.googleapis.com/oauth2/v1/certs",
  "client_x509_cert_url": "https://www.googleapis.com/robot/v1/metadata/x509/1037055028710-compute%40developer.gserviceaccount.com"
}
